CH5 - Forecasters Toolbox
…
2.3 Define a model

The fable package has a number of different modeling method. Here we
will use a linear time trend model

timeSeries_lm <- TSLM(GDP_PC ~ trend())

2.4 Train / Fit the
model

timeSeries_lm_fit <- gdppc %>% model(timeSeries_lm)
timeSeries_lm_fit

## # A mable: 263 x 2
## # Key:     Country [263]
##    Country             timeSeries_lm
##    <fct>                     <model>
##  1 Afghanistan                <TSLM>
##  2 Albania                    <TSLM>
##  3 Algeria                    <TSLM>
##  4 American Samoa             <TSLM>
##  5 Andorra                    <TSLM>
##  6 Angola                     <TSLM>
##  7 Antigua and Barbuda        <TSLM>
##  8 Arab World                 <TSLM>
##  9 Argentina                  <TSLM>
## 10 Armenia                    <TSLM>
## #  253 more rows
…
2.5 Produc Forecast

timeSeries_lm_fit %>% forecast(h = 3)

## # A fable: 789 x 5 [1Y]
## # Key:     Country, .model [263]
##    Country        .model         Year           GDP_PC  .mean
##    <fct>          <chr>         <dbl>           <dist>  <dbl>
##  1 Afghanistan    timeSeries_lm  2018     N(526, 9653)   526.
##  2 Afghanistan    timeSeries_lm  2019     N(534, 9689)   534.
##  3 Afghanistan    timeSeries_lm  2020     N(542, 9727)   542.
##  4 Albania        timeSeries_lm  2018  N(4716, 476419)  4716.
##  5 Albania        timeSeries_lm  2019  N(4867, 481086)  4867.
##  6 Albania        timeSeries_lm  2020  N(5018, 486012)  5018.
##  7 Algeria        timeSeries_lm  2018  N(4410, 643094)  4410.
##  8 Algeria        timeSeries_lm  2019  N(4489, 645311)  4489.
##  9 Algeria        timeSeries_lm  2020  N(4568, 647602)  4568.
## 10 American Samoa timeSeries_lm  2018 N(12491, 652926) 12491.
## #  779 more rows
…
3.6 Fitted and
Residuals

The fable package works with the broom methods.

augment(beer_fit)

## # A tsibble: 180 x 6 [1Q]
## # Key:       .model [3]
##    .model Quarter  Beer .fitted .resid .innov
##    <chr>    <qtr> <dbl>   <dbl>  <dbl>  <dbl>
##  1 Mean   1992 Q1   443    436.   6.55   6.55
##  2 Mean   1992 Q2   410    436. -26.4  -26.4 
##  3 Mean   1992 Q3   420    436. -16.4  -16.4 
##  4 Mean   1992 Q4   532    436.  95.6   95.6 
##  5 Mean   1993 Q1   433    436.  -3.45  -3.45
##  6 Mean   1993 Q2   421    436. -15.4  -15.4 
##  7 Mean   1993 Q3   410    436. -26.4  -26.4 
##  8 Mean   1993 Q4   512    436.  75.6   75.6 
##  9 Mean   1994 Q1   449    436.  12.6   12.6 
## 10 Mean   1994 Q2   381    436. -55.4  -55.4 
## #  170 more rows
…
After generating bootstrap sample mean pathways we can generate
prediction interval based off of each pathway generated. We can use
forecast directly to generate bootstrap samples. We can also control the
bootstrap parameters in forecast.

forecast_boot <- fit_google_Naive %>% forecast(h = 30, bootstrap = TRUE)
forecast_boot

## # A fable: 30 x 5 [1]
## # Key:     Symbol, .model [1]
##    Symbol .model         day        Close .mean
##    <chr>  <chr>        <dbl>       <dist> <dbl>
##  1 GOOG   NAIVE(Close)   253 sample[5000]  759.
##  2 GOOG   NAIVE(Close)   254 sample[5000]  759.
##  3 GOOG   NAIVE(Close)   255 sample[5000]  759.
##  4 GOOG   NAIVE(Close)   256 sample[5000]  759.
##  5 GOOG   NAIVE(Close)   257 sample[5000]  759.
##  6 GOOG   NAIVE(Close)   258 sample[5000]  759.
##  7 GOOG   NAIVE(Close)   259 sample[5000]  759.
##  8 GOOG   NAIVE(Close)   260 sample[5000]  759.
##  9 GOOG   NAIVE(Close)   261 sample[5000]  759.
## 10 GOOG   NAIVE(Close)   262 sample[5000]  759.
## #  20 more rows
…
Example: Difference between median and mean of a transformed forecast
Note: Fable will automatically back transform and bias correct reported
means

transform_ex <- prices %>% 
  filter(!is.na(eggs)) %>%
  model(RW(log(eggs) ~ drift())) %>%
  forecast(h = 50)
transform_ex

## # A fable: 50 x 4 [1Y]
## # Key:     .model [1]
##    .model                   year             eggs .mean
##    <chr>                   <dbl>           <dist> <dbl>
##  1 RW(log(eggs) ~ drift())  1994 t(N(4.1, 0.018))  61.8
##  2 RW(log(eggs) ~ drift())  1995 t(N(4.1, 0.036))  61.4
##  3 RW(log(eggs) ~ drift())  1996 t(N(4.1, 0.055))  61.0
##  4 RW(log(eggs) ~ drift())  1997 t(N(4.1, 0.074))  60.6
##  5 RW(log(eggs) ~ drift())  1998 t(N(4.1, 0.093))  60.2
##  6 RW(log(eggs) ~ drift())  1999    t(N(4, 0.11))  59.8
##  7 RW(log(eggs) ~ drift())  2000    t(N(4, 0.13))  59.4
##  8 RW(log(eggs) ~ drift())  2001    t(N(4, 0.15))  59.0
##  9 RW(log(eggs) ~ drift())  2002    t(N(4, 0.18))  58.6
## 10 RW(log(eggs) ~ drift())  2003     t(N(4, 0.2))  58.3
## #  40 more rows
…
